<?xml version="1.0" encoding="utf-8"?>
<!-- Generator: Adobe Illustrator 22.0.0, SVG Export Plug-In . SVG Version: 6.00 Build 0)  -->
<svg version="1.1" id="Layer_1" xmlns="http://www.w3.org/2000/svg" xmlns:xlink="http://www.w3.org/1999/xlink" x="0px" y="0px"
	 viewBox="0 0 400 400" style="enable-background:new 0 0 400 400;" xml:space="preserve">
<style type="text/css">
	.st0{fill:url(#SVGID_1_);}
</style>
<linearGradient id="SVGID_1_" gradientUnits="userSpaceOnUse" x1="3.0105" y1="195.5" x2="397.2906" y2="195.5">
	<stop  offset="6.134970e-03" style="stop-color:#0766AF"/>
	<stop  offset="6.626161e-02" style="stop-color:#086BB2"/>
	<stop  offset="0.8725" style="stop-color:#10ABE3"/>
</linearGradient>
<path class="st0" d="M267.8,369.2c-24.8-0.4-46.2-9.4-63.8-26.9c-16.6-16.4-33-32.9-49.5-49.4c-2.7-2.7-3.3-5.4-1.8-8
	c1.5-2.6,4-3.6,7.8-2.6c11.4,3,23,4.3,34.7,3.8c5-0.2,9,1.5,12.5,5.1c7.8,8,15.7,16,23.8,23.7c15.4,14.7,33.6,19.4,53.7,12.1
	c19.4-7.1,30.5-21.6,33-42.1c2-16.3-3.6-30.3-15-41.9c-17.9-18.1-35.9-36.2-54.1-54.1c-15.6-15.4-34-19.4-54.7-12.4
	c-6.1,2.1-11.3,5.6-16.1,9.9c-4,3.6-5.2,3.5-9-0.2c-6.4-6.4-12.8-12.8-19.1-19.2c-3.2-3.2-3.1-4.8,0.1-7.9
	c26.4-25.5,66.1-32.2,99.4-17c9.8,4.5,18.5,10.4,26,18c20,20,40.1,39.8,59.7,60.2c11.4,11.8,17.9,26.6,20.8,42.7
	c3.6,19.8,0.9,38.7-8.1,56.7c-8.7,17.2-21.8,30.4-38.9,39.2C296.3,365.9,282.5,369.3,267.8,369.2z M199.5,260.3
	c20-2.4,37.5-10.3,52.2-24.2c3.7-3.5,3.7-5.2,0.1-8.8c-6.3-6.3-12.7-12.6-19-18.9c-3.4-3.3-4.8-3.4-8.3-0.3
	c-20.9,18.7-50.7,18.2-70.7-1.5c-18.4-18.1-36.3-36.6-54.7-54.7c-25.8-25.5-18-68.3,14.9-82.9c18.6-8.2,40.9-4.4,55.2,9.7
	c8.4,8.3,16.8,16.6,25.1,25c3.6,3.7,7.8,5.6,13,5.4c11.9-0.4,23.5,0.8,35.1,3.8c1.8,0.5,4.3,0,5.8-1c3.3-2.1,3-6.2-0.4-9.7
	c-16.5-16.6-33-33.2-49.6-49.7c-15.2-15.1-33.4-24.1-54.7-26c-30.5-2.7-56.2,7.4-76.6,30.3C49.7,76.2,42.7,99.3,45.3,125
	c2.1,21.4,11.3,39.7,26.5,54.9c18,17.9,36,35.8,53.9,53.8c17.8,17.7,39.2,26.7,65,27.2C193.2,260.7,196.3,260.7,199.5,260.3z
	 M342.3,162.6c14.2-2.8,28.4-5.5,42.6-8c7.9-1.4,13.4-8.6,12.2-16.6c-1.2-8.2-8.8-14-16.6-12.6c-15.2,2.8-30.4,5.7-45.5,8.7
	c-6.9,1.4-11.3,7-11.3,14.1C323.6,158.1,332,164.6,342.3,162.6z M20.4,265.1c14.7-2.8,29.4-5.3,44-8.4c7.4-1.6,11.8-9.4,10.4-17.1
	c-1.4-7.3-8.9-12.8-16.3-11.5c-14.7,2.6-29.4,5.4-44,8.4c-7.4,1.5-12.2,8.5-11.3,15.5c1,8.1,6.8,13.2,14.9,13.1
	C18.8,265.2,19.6,265.3,20.4,265.1z M37.9,332c5.6,2.8,11.1,2,15.9-1.8c10.7-8.4,21.3-16.9,31.9-25.4c6.7-5.4,7.6-14.4,2.3-21
	c-4.9-6.2-13.9-7.5-20.5-2.3c-11,8.5-21.7,17.3-32.5,26c-3.6,2.9-5.3,6.8-5.4,11.8C29.9,324.9,32.6,329.4,37.9,332z M94.8,371
	c8.2,7.1,19.5,4.5,24.1-5.7c5.4-12,10.6-24.2,15.8-36.3c3.5-8.1,0.1-16.7-7.5-19.9c-7.8-3.3-16,0.2-19.6,8.4
	c-5.2,11.9-10.5,23.8-15.6,35.7c-1,2.2-1.4,4.7-2.1,7C90.3,364.5,92,368.6,94.8,371z M301.9,18.6c-8.1-5.3-18-2.1-22.1,7.3
	c-5.4,12-10.6,24.2-15.8,36.3c-3.4,7.9-0.2,16.4,7.4,19.8c7.6,3.4,16.1-0.1,19.7-8.1c5.3-12,10.5-24,15.7-36c1-2.2,1.4-4.7,2-7.1
	C308.3,25.4,306.1,21.4,301.9,18.6z M333.3,107.6c10.2-8.1,20.3-16.2,30.4-24.3c6.5-5.2,7.6-13.9,2.8-20.5c-4.6-6.2-13.8-8-20.2-3.1
	c-11.1,8.4-22,17.2-32.8,26.1c-4.8,3.9-6,10.5-3.9,16c2.2,5.7,7.4,9.3,14.3,9.4C327.3,111.4,330.5,109.8,333.3,107.6z"/>
<g>
</g>
<g>
</g>
<g>
</g>
<g>
</g>
<g>
</g>
<g>
</g>
</svg>
