<?xml version="1.0" encoding="utf-8"?>
<!-- Generator: Adobe Illustrator 22.0.0, SVG Export Plug-In . SVG Version: 6.00 Build 0)  -->
<svg version="1.1" id="Layer_1" xmlns="http://www.w3.org/2000/svg" xmlns:xlink="http://www.w3.org/1999/xlink" x="0px" y="0px"
	 viewBox="0 0 400 400" style="enable-background:new 0 0 400 400;" xml:space="preserve">
<style type="text/css">
	.st0{fill:#10ABE3;}
</style>
<g>
	<path class="st0" d="M200.8,145c24.4,0,48.9,0,73.3,0c9.6,0,13.6,4,13.7,13.5c0,27.4,0,54.7,0,82.1c0,9.1-4,13.2-13.1,13.2
		c-49.4,0-98.7,0-148.1,0c-8.5,0-12.7-4.1-12.7-12.5c0-27.9,0-55.7,0-83.6c0-8.6,4.3-12.7,12.9-12.7C151.5,145,176.2,145,200.8,145z
		 M135.7,167.1c0,1.4,0,2.6,0,3.8c0,18.9,0.1,37.9-0.1,56.8c0,3.6,1,4.5,4.5,4.4c40.5-0.1,81.1-0.1,121.6-0.1c1.3,0,2.6,0,4,0
		c0-21.9,0-43.3,0-64.9C222.4,167.1,179.2,167.1,135.7,167.1z"/>
	<g>
		<path class="st0" d="M113.9,47.4c0-10.5,0-20.4,0-30.3c0-9.4,3.7-13.1,13-13.1c49.3,0,98.5,0,147.8,0c9.3,0,13.1,3.7,13.1,13
			c0,27.6,0,55.2,0,82.9c0,8.5-4.2,12.7-12.5,12.7c-49.4,0-98.8,0-148.1,0c-9.5,0-13.2-3.8-13.3-13.4c0-8.6,0-17.1,0-25.7
			c0-1.3,0-2.6,0-4.3c-1.7-0.1-3-0.2-4.3-0.2C86.7,69,63.9,69,41,69.1c-2.7,0-5.6,0.4-8.2,1.4c-3.4,1.3-5.3,4.2-5.7,7.9
			c-0.2,1.7-0.3,3.4-0.3,5.1c0,77.6,0,155.2,0,232.8c0,9.6,4,13.5,13.6,13.5c7.9,0,15.9,0,23.8-0.1c0.2,0,0.4-0.2,1.1-0.6
			c-4-4.2-8-8.2-11.9-12.3c-1.2-1.3-2.5-2.7-3.3-4.3c-2.4-4.7-1.1-9.8,3.3-13.3c3.6-2.9,9-2.9,12.8,0.3c2.9,2.4,5.6,5.1,8.3,7.8
			c8.2,8.1,16.3,16.2,24.4,24.4c5.3,5.4,5.9,11.5,1.3,16.2c-10.9,11.2-22,22.2-33.2,33.2c-4.2,4.1-10.2,3.9-14.6,0
			c-4.2-3.7-4.8-9.9-0.9-14.4c4.3-5,9-9.6,14.2-15c-1.9,0-3.1,0-4.4,0c-9.8-0.2-19.6,0.3-29.3-0.8C17.2,349.1,5.4,334.9,5.4,320
			c0-80.3,0-160.6,0-240.9c0-17.1,14.8-31.7,31.9-31.7c24.1,0,48.2,0,72.2,0C110.8,47.4,112.1,47.4,113.9,47.4z M135.9,25.7
			c0,21.7,0,43.2,0,64.8c43.5,0,86.6,0,129.7,0c0-21.7,0-43.2,0-64.8C222.3,25.7,179.2,25.7,135.9,25.7z"/>
		<path class="st0" d="M287.8,340.7c1.6,0,2.8,0,4,0c23.3,0,46.7,0,70,0c8.7,0,12.8-4.1,12.8-12.7c0-34.8,0-69.6,0-104.5
			c0-9.2-4-13.2-13.1-13.2c-8.1,0-16.1,0-24.2,0.1c-0.2,0-0.4,0.2-1,0.6c4.4,4.6,8.8,9.1,13,13.7c6,6.5,3.1,16.4-5.5,18.3
			c-3.4,0.7-6.6-0.1-9.1-2.6c-11.2-11.1-22.3-22.2-33.4-33.4c-4.1-4.1-4.1-10.4,0.2-14.8c10.8-11.1,21.8-22.1,32.9-32.9
			c4.2-4.1,10.5-3.8,14.5,0.1c4.4,4.3,5,10.1,0.9,14.7c-3.4,3.8-7.2,7.3-10.8,11c-0.9,0.9-1.8,1.9-3.3,3.6c2.2,0,3.4,0,4.7,0
			c8.7,0.1,17.4-0.1,26,0.3c15.9,0.8,29.7,15.3,29.7,31.2c0.1,37,0.1,74,0,111.1c0,17.4-15.4,31.4-34.2,31.5
			c-23.2,0.1-46.4,0-69.6,0c-1.4,0-2.9,0-4.6,0c0,6.7,0,13,0,19.4c0,9-4,13-12.9,13c-49.6,0-99.2,0-148.8,0c-8,0-12.2-4.1-12.2-12.1
			c0-28.1,0-56.2,0-84.3c0-8,4.2-12.1,12.2-12.1c49.9,0,99.7,0,149.6,0c7.7,0,12.1,4.3,12.1,12C287.8,312.3,287.8,326.3,287.8,340.7
			z M135.9,308.2c0,21.8,0,43.2,0,64.9c43.4,0,86.5,0,129.7,0c0-21.8,0-43.3,0-64.9C222.3,308.2,179.3,308.2,135.9,308.2z"/>
	</g>
</g>
<g>
</g>
<g>
</g>
<g>
</g>
<g>
</g>
<g>
</g>
<g>
</g>
</svg>
