<?xml version="1.0" encoding="utf-8"?>
<!-- Generator: Adobe Illustrator 22.0.0, SVG Export Plug-In . SVG Version: 6.00 Build 0)  -->
<svg version="1.1" id="Layer_1" xmlns="http://www.w3.org/2000/svg" xmlns:xlink="http://www.w3.org/1999/xlink" x="0px" y="0px"
	 viewBox="0 0 400 400" style="enable-background:new 0 0 400 400;" xml:space="preserve">
<style type="text/css">
	.st0{fill:url(#SVGID_1_);}
</style>
<linearGradient id="SVGID_1_" gradientUnits="userSpaceOnUse" x1="4.526" y1="200.0367" x2="395" y2="200.0367">
	<stop  offset="0" style="stop-color:#09854A"/>
	<stop  offset="2.435981e-03" style="stop-color:#0B854A"/>
	<stop  offset="0.315" style="stop-color:#5C9C50"/>
	<stop  offset="0.5887" style="stop-color:#81B054"/>
	<stop  offset="0.8106" style="stop-color:#98BF57"/>
	<stop  offset="0.9528" style="stop-color:#A1C558"/>
</linearGradient>
<path class="st0" d="M31.8,354.8H395v27.3H4.5V18h27.3V354.8z M341.1,329.3c5.1,0,9.3-4.2,9.3-9.3V127.4c0-5.1-4.2-9.3-9.3-9.3
	h-28.8c-5.1,0-9.3,4.2-9.3,9.3V320c0,5.1,4.2,9.3,9.3,9.3H341.1z M189.4,329.3c5.1,0,9.3-4.2,9.3-9.3V83.7c0-5.1-4.2-9.3-9.3-9.3
	h-28.8c-5.1,0-9.3,4.2-9.3,9.3V320c0,5.1,4.2,9.3,9.3,9.3H189.4z M113.6,329.3c5.1,0,9.3-4.2,9.3-9.3V192.9c0-5.1-4.2-9.3-9.3-9.3
	H84.8c-5.1,0-9.3,4.2-9.3,9.3V320c0,5.1,4.2,9.3,9.3,9.3H113.6z M265.3,329.3c5.1,0,9.3-4.2,9.3-9.3v-83.4c0-5.1-4.2-9.3-9.3-9.3
	h-28.8c-5.1,0-9.3,4.2-9.3,9.3V320c0,5.1,4.2,9.3,9.3,9.3H265.3z"/>
<g>
</g>
<g>
</g>
<g>
</g>
<g>
</g>
<g>
</g>
<g>
</g>
</svg>
