<?xml version="1.0" encoding="utf-8"?>
<!-- Generator: Adobe Illustrator 22.0.0, SVG Export Plug-In . SVG Version: 6.00 Build 0)  -->
<svg version="1.1" id="Layer_1" xmlns="http://www.w3.org/2000/svg" xmlns:xlink="http://www.w3.org/1999/xlink" x="0px" y="0px"
	 viewBox="0 0 400 400" style="enable-background:new 0 0 400 400;" xml:space="preserve">
<style type="text/css">
	.st0{fill:#8CC63F;}
</style>
<polygon class="st0" points="245.1,275.8 160.5,222.6 160.5,329 "/>
<polygon class="st0" points="365.8,201.8 281.2,148.7 281.2,255 "/>
<polygon class="st0" points="245.1,125.7 160.5,72.6 160.5,178.9 "/>
<polygon class="st0" points="119.2,56 34.6,2.8 34.6,109.2 "/>
<polygon class="st0" points="119.2,339.8 34.6,286.6 34.6,393 "/>
<polygon class="st0" points="119.2,197.9 34.6,144.7 34.6,251.1 "/>
</svg>
