<?xml version="1.0" encoding="utf-8"?>
<!-- Generator: Adobe Illustrator 22.0.0, SVG Export Plug-In . SVG Version: 6.00 Build 0)  -->
<svg version="1.1" id="Layer_1" xmlns="http://www.w3.org/2000/svg" xmlns:xlink="http://www.w3.org/1999/xlink" x="0px" y="0px"
	 viewBox="0 0 400 400" style="enable-background:new 0 0 400 400;" xml:space="preserve">
<style type="text/css">
	.st0{fill:#8CC63F;}
</style>
<g>
	<path class="st0" d="M17.8,320.7c79.7,0,159,0,238.2,0c-1.9-6.2-3.8-12.3-5.8-18.8c-2.8,0-6,0-9.3,0c-4.6,0-6.9-2.3-7-6.9
		c-0.1-3.2,0-6.4,0-9.6c0-47.7,0-95.3,0-143c0-1.1,0-2.2,0.1-3.3c0.3-3.3,2.7-5.6,6.1-5.7c8.8-0.1,17.7-0.1,26.5,0
		c3.5,0,6,2.6,6.1,6.1c0.1,1.2,0,2.3,0,3.5c0,35.8,0,71.6,0,107.4c0,0.9,0,1.9,0,3.3c1-0.6,1.8-1,2.6-1.5c8.9-5.5,18.6-8.1,29-7.7
		c24.6,0.9,44.9,18.4,49.1,42.7c1.6,9.5,0.9,18.7-2.6,27.6c-0.6,1.6,0.3,2.1,1.1,2.9c12,12,24,23.9,36,36c9.3,9.4,8.2,23.9-2.3,31.6
		c-7.9,5.8-18.9,4.6-26.3-2.7c-12.1-12.1-24.2-24.2-36.3-36.3c-1.2-1.2-2.1-1.5-3.8-1c-18,5.8-34.6,2.9-49.3-8.9
		c-2.9-2.3-5.6-3-9.1-3c-82.1,0-164.3,0-246.4,0c-1.3,0-2.7,0-4-0.2c-3.2-0.6-5-2.8-5.2-6c0-0.6,0-1.3,0-1.9c0-95.5,0-191,0-286.5
		c0-1.5,0.1-3.2,0.7-4.5c1-2.4,4-3.7,6.4-3.3c3,0.6,5.1,2.7,5.4,5.7c0.1,1,0.1,2,0.1,3c0,92.5,0,185.1,0,277.6
		C17.8,318.5,17.8,319.5,17.8,320.7z M302.5,257.3c-21.6,0-39.3,17.7-39.3,39.1c0,21.9,17.7,39.6,39.4,39.5
		c21.3,0,39.1-18.1,39-39.5C341.6,274.6,324.2,257.2,302.5,257.3z M250.9,289.1c1.1-7.5,3.8-14.3,7.6-20.6c0.8-1.3,1.4-3,1.4-4.5
		c0.1-38.4,0.1-76.9,0.1-115.3c0-0.8,0-1.7,0-2.5c-4.6,0-8.9,0-13.3,0c0,47.8,0,95.3,0,143C248.1,289.1,249.4,289.1,250.9,289.1z
		 M333.6,339.4c1.2,1.1,3.1,3,4.9,4.8c9.8,9.8,19.6,19.5,29.3,29.3c2.2,2.2,4.8,3.6,8,2.7c6.1-1.7,7.9-8.8,3.4-13.4
		c-11.4-11.5-23-23-34.4-34.4c-0.3-0.3-0.6-0.5-0.5-0.4C340.8,331.8,337.3,335.5,333.6,339.4z"/>
	<path class="st0" d="M202.4,124c6.7-6.5,13.4-12.9,20.1-19.4c3.3-3.2,6.6-6.4,10-9.6c1-1,1.5-1.8,1.3-3.4
		c-1.3-10.3,5.7-19.7,15.7-21.3c10.1-1.6,19.8,4.7,22,14.5c2.3,10.2-3.5,20.2-13.6,23c-6.1,1.7-11.8,0.5-17-3.3
		c-0.5,0.4-1.1,0.9-1.6,1.3c-9.7,9.4-19.4,18.8-29.2,28.1c-1.1,1-1.4,2-1.3,3.5c0.6,9.3-5,17.4-13.8,19.9
		c-8.6,2.4-17.8-1.4-22.2-9.4c-0.6-1.2-1.2-1.7-2.6-1.7c-8.4,0.1-16.9,0-25.3,0c-1.1,0-1.9,0-2.3,1.4c-3.8,13.6-21.3,18.5-31.9,8.3
		c-0.2-0.2-0.4-0.2-0.9-0.5c-1.6,1.7-3.3,3.5-5,5.2c-7.9,8-15.8,16-23.9,23.9c-1.3,1.3-1.8,2.6-1.7,4.5c0.4,7.9-2.9,14-9.8,17.8
		c-6.8,3.8-13.6,3.4-20.2-0.8c-6.8-4.4-9.8-13.2-7.6-21.3c2.2-7.8,9.3-13.4,17.4-13.7c5.1-0.2,7.1,0.4,13.4,4.1
		c3.1-3.1,6.3-6.2,9.4-9.4c7.2-7.2,14.4-14.4,21.5-21.6c0.8-0.8,1.4-2.1,1.5-3.2c0.6-8.1,6.1-15.1,13.9-17.3
		c8-2.2,16.7,0.8,21.2,7.8c1.1,1.8,2.3,2.3,4.3,2.3c8.3-0.1,16.6-0.1,24.8,0c1.2,0,1.9-0.1,2.5-1.5c5-12.3,18.3-16.3,29.3-9
		C201.5,123.5,201.9,123.7,202.4,124z M124.5,135.7c-3.7-0.1-6.6,2.7-6.8,6.3c-0.1,3.7,2.8,6.7,6.5,6.9c3.3,0.1,6.6-3.2,6.6-6.9
		C131,138.4,128.2,135.8,124.5,135.7z M252.8,82.4c-3.6,0-6.6,3-6.6,6.5c0,3.5,3.1,6.6,6.6,6.6c3.5,0,6.6-3,6.6-6.6
		C259.4,85.4,256.4,82.4,252.8,82.4z M60.2,183.5c-3.4,0-6.4,2.9-6.5,6.4c-0.1,3.4,3,6.7,6.4,6.8c3.4,0.1,6.6-3,6.7-6.4
		C66.9,186.7,63.8,183.6,60.2,183.5z M189.8,144.9c3.5,0,6.6-3.1,6.6-6.6c0-3.5-3-6.5-6.6-6.4c-3.6,0-6.6,3-6.6,6.6
		C183.2,142,186.2,145,189.8,144.9z"/>
	<path class="st0" d="M169.9,234.5c0-19.4,0-38.7,0-58.1c0-5.5,2.3-7.8,7.8-7.9c7.7,0,15.5,0,23.2,0c5.5,0,7.8,2.4,7.8,7.9
		c0,38.9,0,77.8,0,116.7c0,5.3-2.4,7.7-7.8,7.7c-7.9,0-15.8,0-23.7,0c-5,0-7.4-2.4-7.4-7.5C169.9,273.8,169.9,254.2,169.9,234.5
		C169.9,234.5,169.9,234.5,169.9,234.5z M182.7,181.4c0,35.7,0,71.3,0,106.8c4.5,0,8.9,0,13.1,0c0-35.7,0-71.3,0-106.8
		C191.5,181.4,187.2,181.4,182.7,181.4z"/>
	<path class="st0" d="M103.4,251.7c0-13.5,0-27,0-40.5c0-5.9,2.2-8.1,8-8.1c8.2,0,16.4,0,24.6,0c5.4,0,7.8,2.3,7.8,7.7
		c0,27.6,0,55.1,0,82.7c0,5.3-2.3,7.6-7.6,7.6c-8.3,0-16.6,0-24.8,0c-5.8,0-8-2.2-8-8.1C103.4,279.1,103.4,265.4,103.4,251.7z
		 M131.3,288.2c0-24.3,0-48.3,0-72.5c-4.2,0-8.3,0.2-12.3-0.1c-2.3-0.1-2.7,0.7-2.7,2.8c0.1,22.4,0,44.8,0,67.3
		c0,0.8,0.1,1.7,0.1,2.6C121.5,288.2,126.3,288.2,131.3,288.2z"/>
	<path class="st0" d="M38.9,268.2c0-8.4,0-16.7,0-25.1c0-5.1,2.4-7.4,7.5-7.4c8,0,15.9,0,23.9,0c4.9,0,7.3,2.4,7.3,7.3
		c0,17,0,34,0,51.1c0,5-2.2,7.2-7.1,7.2c-8.2,0-16.4,0-24.6,0c-4.5,0-6.9-2.3-7-6.9C38.9,285.7,38.9,276.9,38.9,268.2z M51.7,248.5
		c0,13.5,0,26.8,0,40c4.5,0,8.8,0,13.1,0c0-13.4,0-26.7,0-40C60.4,248.5,56.2,248.5,51.7,248.5z"/>
</g>
</svg>
